ISSS608-VAA - Take-home_Ex01
…
[1] 1113

# Remove all duplicate rows in the FinancialJournal
FinancialJournal <- distinct(FinancialJournal)

# 5. remove the rows with less than 12 months record###############################

# check the row with less than 12 months record
FinancialJournal %>% 
  group_by(participantId) %>% 
  filter(n_distinct(month) < 12) %>% 
  distinct(participantId)

# A tibble: 131 × 1
# Groups:   participantId [131]
   participantId
           <int>
 1            44
 2           127
 3           142
 4           154
 5           161
 6           256
 7           262
 8           267
 9           279
10           285
# ℹ 121 more rows
…
# Create age_bin column
joined_table$age_bin <- cut(joined_table$age, 
                            breaks = c(-Inf, 30, 40, 50, Inf),
                            labels = c("<=30", ">30-40", ">40-50", ">50"))

# Create Wage_bin column
joined_table$Wage_bin <- cut(joined_table$Wage,
                             breaks = c(-Inf, 3000, 4000, 5000, Inf),
                             labels = c("<3000", "3000-<4000", "4000-<5000", ">=5000"))

joined_table

# A tibble: 880 × 16
   participantId householdSize haveKids   age educationLevel      interestGroup
           <int>         <int> <lgl>    <int> <fct>               <chr>        
 1             0             3 TRUE        36 HighSchoolOrCollege H            
 2             1             3 TRUE        25 HighSchoolOrCollege B            
 3             2             3 TRUE        35 HighSchoolOrCollege A            
 4             3             3 TRUE        21 HighSchoolOrCollege I            
 5             4             3 TRUE        43 Bachelors           H            
 6             5             3 TRUE        32 HighSchoolOrCollege D            
 7             6             3 TRUE        26 HighSchoolOrCollege I            
 8             7             3 TRUE        27 Bachelors           A            
 9             8             3 TRUE        20 Bachelors           G            
10             9             3 TRUE        35 Bachelors           D            
# ℹ 870 more rows
# ℹ 10 more variables: joviality <dbl>, Education <dbl>, Food <dbl>,
#   Recreation <dbl>, Shelter <dbl>, Wage <dbl>, Total_Expenditure <dbl>,
#   Saving_Ratio <dbl>, age_bin <fct>, Wage_bin <fct>
…
